
{
    "name":"Blue Line",
    "lines":[
        {
            "name":"Metro Line",
            "circular":true,
            "color":{
                "red":0.3019607961177826,
                "green":0.4000000059604645,
                "blue":0.800000011920929,
                "alpha":1.0
            },
            "station_names ":[
                "1",
                "2",
                "3",
                "4",
                "55",
                "655",
                "1"
            ]
        }
    ],
    "stations":[
        {
            "name":"1",
            "x":180.0,
            "y":124.0
        },
        {
            "name":"2",
            "x":410.0,
            "y":142.0
        },
        {
            "name":"3",
            "x":433.0,
            "y":208.0
        },
        {
            "name":"4",
            "x":525.0,
            "y":192.0
        },
        {
            "name":"55",
            "x":529.0,
            "y":93.0
        },
        {
            "name":"655",
            "x":616.0,
            "y":292.0
        },
        {
            "name":"Metro Station",
            "x":148.0,
            "y":201.0
        }
    ]
}